v 20111231 2
P 100 850 400 850 1 0 0
{
T 300 900 5 8 1 1 0 6 1
pinnumber=1
T 300 800 5 8 0 1 0 8 1
pinseq=1
T 450 850 9 8 1 1 0 0 1
pinlabel=Heat0
T 450 850 5 8 0 1 0 2 1
pintype=pwr
}
P 100 600 400 600 1 0 0
{
T 300 650 5 8 1 1 0 6 1
pinnumber=2
T 300 550 5 8 0 1 0 8 1
pinseq=2
T 450 600 9 8 1 1 0 0 1
pinlabel=HeatRtn
T 450 600 5 8 0 1 0 2 1
pintype=pwr
}
P 100 350 400 350 1 0 0
{
T 300 400 5 8 1 1 0 6 1
pinnumber=3
T 300 300 5 8 0 1 0 8 1
pinseq=3
T 450 350 9 8 1 1 0 0 1
pinlabel=Heat1
T 450 350 5 8 0 1 0 2 1
pintype=pwr
}
P 2300 850 2000 850 1 0 0
{
T 2100 900 5 8 1 1 0 0 1
pinnumber=4
T 2100 800 5 8 0 1 0 2 1
pinseq=4
T 1950 850 9 8 1 1 0 6 1
pinlabel=HeatRtn
T 1950 850 5 8 0 1 0 8 1
pintype=pwr
}
P 2300 600 2000 600 1 0 0
{
T 2100 650 5 8 1 1 0 0 1
pinnumber=5
T 2100 550 5 8 0 1 0 2 1
pinseq=5
T 1950 600 9 8 1 1 0 6 1
pinlabel=Vin_Vdc
T 1950 600 5 8 0 1 0 8 1
pintype=pwr
}
P 2300 350 2000 350 1 0 0
{
T 2100 400 5 8 1 1 0 0 1
pinnumber=6
T 2100 300 5 8 0 1 0 2 1
pinseq=6
T 1950 350 9 8 1 1 0 6 1
pinlabel=gnd
T 1950 350 5 8 0 1 0 8 1
pintype=pwr
}
B 400 100 1600 1000 3 0 0 0 -1 -1 0 -1 -1 -1 -1 -1
T 2000 1200 8 10 1 1 0 6 1
refdes=CONN?
T 400 1400 9 10 1 0 0 0 1
TAM_pwrline_6pin_v2
T 400 1400 5 10 0 0 0 0 1
device=TAM_pwrline_6pin_v2
T 400 1600 5 10 0 0 0 0 1
author=rma for tam
T 400 1800 5 10 0 0 0 0 1
documentation=dev.typ.ma
T 400 2000 5 10 0 0 0 0 1
description=breakout device for gantry pwr connection
T 400 2200 5 10 0 0 0 0 1
numslots=0
